%YAML 1.1
%TAG !u! tag:unity3d.com,2011:
--- !u!114 &11400000
MonoBehaviour:
  m_ObjectHideFlags: 0
  m_PrefabParentObject: {fileID: 0}
  m_PrefabInternal: {fileID: 0}
  m_GameObject: {fileID: 0}
  m_Enabled: 1
  m_EditorHideFlags: 0
  m_Script: {fileID: 11500000, guid: 7c3d755cf6cc936488afcb037b69341e, type: 3}
  m_Name: __actions_buggy_in_Reset
  m_EditorClassIdentifier: 
  changeTolerance: 0.000001
  fullPath: /actions/buggy/in/Reset
  actionSet: {fileID: 11400000, guid: 5c1dabbba19484b4c9b1eb77a717fbd3, type: 2}
  direction: 0
