%YAML 1.1
%TAG !u! tag:unity3d.com,2011:
--- !u!21 &2100000
Material:
  serializedVersion: 6
  m_ObjectHideFlags: 0
  m_PrefabParentObject: {fileID: 0}
  m_PrefabInternal: {fileID: 0}
  m_Name: landscape-wasseroberflaeche
  m_Shader: {fileID: 32, guid: 0000000000000000f000000000000000, type: 0}
  m_ShaderKeywords: 
  m_LightmapFlags: 4
  m_EnableInstancingVariants: 0
  m_DoubleSidedGI: 0
  m_CustomRenderQueue: -1
  stringTagMap: {}
  disabledShaderPasses: []
  m_SavedProperties:
    serializedVersion: 3
    m_TexEnvs:
    - _MainTex:
        m_Texture: {fileID: 2800000, guid: 6cd7275bee21d174296e3f89cd10633f, type: 3}
        m_Scale: {x: 1, y: 1}
        m_Offset: {x: 0, y: 0}
    m_Floats:
    - _Shininess: 0.09290112
    m_Colors:
    - _Color: {r: 0.48685673, g: 0.50279313, b: 0.6940298, a: 0.60784316}
    - _SpecColor: {r: 0.70149255, g: 0.70149255, b: 0.70149255, a: 0}
--- !u!1002 &2100001
EditorExtensionImpl:
  serializedVersion: 6
